﻿CREATE DATABASE [GKU]
 CONTAINMENT = NONE
 ON  PRIMARY 
( NAME = N'GKU_Data', FILENAME = N'G:\MSSQL\DB\GKU\GKU.mdf' , SIZE = 115097600KB , MAXSIZE = UNLIMITED, FILEGROWTH = 102400KB ),
( NAME = N'GKU_Data02', FILENAME = N'G:\MSSQL\DB\GKU\gku_1.ndf' , SIZE = 103335552KB , MAXSIZE = UNLIMITED, FILEGROWTH = 102400KB ),
( NAME = N'GKU_Data03', FILENAME = N'G:\MSSQL\DB\GKU\gku_2.ndf' , SIZE = 106864960KB , MAXSIZE = UNLIMITED, FILEGROWTH = 102400KB ),
( NAME = N'GKU_Data04', FILENAME = N'G:\MSSQL\DB\GKU\gku_3.ndf' , SIZE = 108368000KB , MAXSIZE = UNLIMITED, FILEGROWTH = 102400KB ),
( NAME = N'GKU_Data05', FILENAME = N'G:\MSSQL\DB\GKU\gku_4.ndf' , SIZE = 106875456KB , MAXSIZE = UNLIMITED, FILEGROWTH = 102400KB ),
( NAME = N'GKU_Data06', FILENAME = N'G:\MSSQL\DB\GKU\gku_5.ndf' , SIZE = 109261952KB , MAXSIZE = UNLIMITED, FILEGROWTH = 102400KB ), 
 FILEGROUP [AgrGroup] 
( NAME = N'AgrData', FILENAME = N'G:\MSSQL\DB\GKU\AgrData.mdf' , SIZE = 4096000KB , MAXSIZE = 43010048KB , FILEGROWTH = 1024000KB ),
( NAME = N'AgrData2', FILENAME = N'G:\MSSQL\DB\GKU\AgrData2.ndf' , SIZE = 2097152KB , MAXSIZE = UNLIMITED, FILEGROWTH = 1048576KB ), 
 FILEGROUP [ColdData] 
( NAME = N'UnclaimedData', FILENAME = N'G:\MSSQL\DB\GKU\UnclaimedData.ndf' , SIZE = 5120KB , MAXSIZE = UNLIMITED, FILEGROWTH = 524288KB ), 
 FILEGROUP [Money] 
( NAME = N'Money1', FILENAME = N'G:\MSSQL\DB\GKU\Money1.ndf' , SIZE = 29625024KB , MAXSIZE = UNLIMITED, FILEGROWTH = 524288KB ),
( NAME = N'Money2', FILENAME = N'G:\MSSQL\DB\GKU\Money2.ndf' , SIZE = 23440256KB , MAXSIZE = UNLIMITED, FILEGROWTH = 524288KB ),
( NAME = N'Money3', FILENAME = N'G:\MSSQL\DB\GKU\Money3.ndf' , SIZE = 24999360KB , MAXSIZE = UNLIMITED, FILEGROWTH = 524288KB ),
( NAME = N'Money4', FILENAME = N'G:\MSSQL\DB\GKU\Money4.ndf' , SIZE = 25259840KB , MAXSIZE = UNLIMITED, FILEGROWTH = 524288KB ),
( NAME = N'Money5', FILENAME = N'G:\MSSQL\DB\GKU\Money5.ndf' , SIZE = 28139520KB , MAXSIZE = UNLIMITED, FILEGROWTH = 524288KB ),
( NAME = N'Money6', FILENAME = N'G:\MSSQL\DB\GKU\Money6.ndf' , SIZE = 29736960KB , MAXSIZE = UNLIMITED, FILEGROWTH = 524288KB ),
( NAME = N'Money7', FILENAME = N'G:\MSSQL\DB\GKU\Money7.ndf' , SIZE = 7864320KB , MAXSIZE = 7864320KB , FILEGROWTH = 524288KB ),
( NAME = N'Money8', FILENAME = N'G:\MSSQL\DB\GKU\Money8.ndf' , SIZE = 9961472KB , MAXSIZE = 9961472KB , FILEGROWTH = 524288KB ), 
 FILEGROUP [Pay_Index] 
( NAME = N'GKU_Pay_Index', FILENAME = N'G:\MSSQL\DB\GKU\pay_index.ndf' , SIZE = 61880128KB , MAXSIZE = UNLIMITED, FILEGROWTH = 102400KB ), 
 FILEGROUP [PENI] 
( NAME = N'PENI', FILENAME = N'G:\MSSQL\DB\GKU\peni.ndf' , SIZE = 38749888KB , MAXSIZE = UNLIMITED, FILEGROWTH = 102400KB ), 
 FILEGROUP [PU_index] 
( NAME = N'pu_index', FILENAME = N'G:\MSSQL\DB\GKU\pu_index.ndf' , SIZE = 51939840KB , MAXSIZE = UNLIMITED, FILEGROWTH = 102400KB )
 LOG ON 
( NAME = N'GKU_Log', FILENAME = N'G:\MSSQL\DB\GKU\GKU_log.ldf' , SIZE = 209920512KB , MAXSIZE = 2048GB , FILEGROWTH = 5120000KB )
GO
ALTER DATABASE [GKU] ADD FILEGROUP [DED_INDEX]
GO
ALTER DATABASE [GKU] ADD FILEGROUP [Sld_Index]
GO
ALTER DATABASE [GKU] SET COMPATIBILITY_LEVEL = 130
GO
IF (1 = FULLTEXTSERVICEPROPERTY('IsFullTextInstalled'))
begin
	EXEC [GKU].[dbo].[sp_fulltext_database] @action = 'enable'
end